random quiz,quiz,answer,
short,what is natasha romanoffs other name,black widow,
short,finish the sentence I solemnly swear that I am up to no,good,
short,how much wood could a woodchuck chuck if a woodchuck could chuck wood,a shit load,
name2,quiz,answer,
type,question,answer,
type,question,answer,
type,question,answer,
type,question,answer,
type,question,answer,
type,question,answer,
type,question,answer
